{
    "packageDirectories": [
      {
        "path": "force-app",
        "default": true
      } 
    ],
    "namespace": "",
    "sfdcLoginUrl": "https://login.salesforce.com",
    "sourceApiVersion": "45.0"
  }    