{
    "compilerOptions": {
        "baseUrl": ".",
        "paths": {
            "c/lookup": [
                "lookup/lookup.js"
            ],
            "c/sampleLookupContainer": [
                "sampleLookupContainer/sampleLookupContainer.js"
            ]
        },
        "experimentalDecorators": true
    },
    "include": [
        "**/*",
        "../../../../.sfdx/typings/lwc/**/*.d.ts"
    ],
    "typeAcquisition": {
        "include": [
            "jest"
        ]
    }
}
